Generate a random tibble — gen_tbl • vroom
…
# all double 25 x 4 table
dbl_tbl <- gen_tbl(25, 4, col_types = "dddd")
dbl_tbl
#> # A tibble: 25 × 4
#>         X1      X2      X3      X4
#>      <dbl>   <dbl>   <dbl>   <dbl>
#>  1 -1.85   -0.626  -0.161  -1.04  
#>  2 -0.962  -0.0195  0.666  -2.81  
#>  3 -0.0721 -1.20   -0.0461 -1.15  
#>  4  0.574  -1.16    1.57    0.762 
#>  5 -0.430  -0.547   0.342  -0.230 
#>  6  0.602  -0.376   0.181   0.499 
#>  7 -1.18   -0.534  -1.62    0.977 
#>  8  1.94   -0.574   1.41   -1.42  
#>  9  0.520  -1.08    1.01   -0.0818
#> 10  0.483  -1.14    0.162  -0.505 
#> # … with 15 more rows
…
#> [[1]]
#> <collector_double>
#> 
#> [[2]]
#> <collector_double>
#> 
#> [[3]]
#> <collector_double>
#> 
#> [[4]]
#> <collector_double>
#> 
dbl_tbl2 <- gen_tbl(25, 4, col_types = types)
dbl_tbl2
#> # A tibble: 25 × 4
#>        X1    X2    X3    X4
#>     <dbl> <dbl> <dbl> <dbl>
#>  1  3.44  -3.65  8.18 15.4 
#>  2  7.50  11.3   8.15 16.4 
#>  3 -6.00  24.7  15.8  11.9 
#>  4  0.168  1.04 -9.17 -1.84
#>  5 -9.13  -1.81 -7.65 -6.22
#>  6  7.26  24.9   6.98 -6.78
#>  7 -7.66  -3.27 -8.66 14.9 
#>  8 22.4    5.57  7.76 23.5 
#>  9  0.955 -8.81 -8.10 10.5 
#> 10 17.6   24.6  20.1  -6.04
#> # … with 15 more rows
…
